Django==1.5.5
Mezzanine==1.4.16
Pillow==2.3.0
South==0.8.4
Werkzeug==0.9.4
argparse==1.2.1
beautifulsoup4==4.3.2
bleach==1.2.2
dj-database-url==0.2.2
dj-static==0.0.5
django-appconf==0.6
django-compressor==1.3
django-debug-toolbar==0.11.0
django-extensions==1.2.5
django-qsstats-magic==0.7.2
filebrowser-safe==0.2.31
grappelli-safe==0.2.23
gunicorn==18.0
html5lib==0.95
ipdb==0.8
ipython==1.1.0
newrelic==2.18.1.15
oauthlib==0.6.0
pep8==1.4.6
psycopg2==2.5.3
pyflakes==0.7.3
python-dateutil==2.2
pytz==2013.8
raven==4.2.3
requests==1.2.3
requests-oauthlib==0.3.3
six==1.4.1
sqlparse==0.1.10
static==0.4
wsgiref==0.1.2
yolk==0.4.3
